ランダム化比較試験
…
## 
## ℹ Use `spec()` to retrieve the full column specification for this data.
## ℹ Specify the column types or set `show_col_types = FALSE` to quiet this message.

データの詳細についてはGerber, Green, and Larimer (2008)を参照してください。まずはデータの大きさを確認します。

dim(GG_df)

## [1] 344084      8

GG_dfは344084行、8列のデータということが分かります。つまり、観察数（=被験者数）が3344084人であり、変数が8個測定されているということです。つづいて、データの中身を見ますが、サイズが極めて大きので、最初の20人分のデータのみ表示させます。print(GG_df, n = 20)と打つだけでデータが表示されます。

print(GG_df, n = 20) # read_csv()で読み込んだ場合

## # A tibble: 344,084 x 8
##    sex      yob p2000 p2002 p2004 treatment  voted hh_size
##    <chr>  <dbl> <chr> <chr> <chr> <chr>      <chr>   <dbl>
##  1 male    1941 no    yes   No    Civic Duty No          2
##  2 female  1947 no    yes   No    Civic Duty No          2
##  3 male    1951 no    yes   No    Hawthorne  Yes         3
##  4 female  1950 no    yes   No    Hawthorne  Yes         3
##  5 female  1982 no    yes   No    Hawthorne  Yes         3
##  6 male    1981 no    no    No    Control    No          3
##  7 female  1959 no    yes   No    Control    Yes         3
##  8 male    1956 no    yes   No    Control    Yes         3
##  9 female  1968 no    yes   No    Control    No          2
## 10 male    1967 no    yes   No    Control    No          2
## 11 male    1941 no    no    Yes   Control    Yes         1
## 12 male    1945 no    no    No    Hawthorne  No          2
## 13 female  1949 no    yes   No    Hawthorne  Yes         2
## 14 female  1969 no    no    Yes   Control    No          1
## 15 female  1967 yes   yes   Yes   Control    Yes         2
## 16 male    1961 no    yes   Yes   Control    Yes         2
## 17 female  1957 no    no    No    Self       No          2
## 18 male    1955 no    no    No    Self       No          2
## 19 female  1943 no    yes   No    Control    Yes         1
## 20 male    1939 no    yes   No    Neighbors  Yes         1
## # … with 344,064 more rows
…
