回帰不連続デザイン
…
Ariga_bw

## [1] 7.423955

7.4239549の結果が実際、RDestimate()から得られたLATEのバンド幅と一致します。それでは、データを用意します。まずは、使用する変数はF_ldpv_smdとvm1のみですから、この2列だけを残し、vm1がバンド幅内に位置する行のみ残します。もし、select()関数でエラーが出る場合、dplyr::select()を使用してください。今回の例では問題ございませんが、Rのメジャーなパッケージの一つである{MASS}にもselect()関数があります。もし、{tidyverse}（あるいは{dplyr}）の後に{MASS}を読み込んだ場合、select()関数はMASS::select()を意味します。その意味でselect()関数はパッケージ名も指定した方が良いかも知れませんね。

Ariga_df2 <- Ariga_df %>%
  # F_ldpv_smd、vm1列のみ残す
  select(F_ldpv_smd, vm1) %>%
  # vm1が-1 * Ariga_bw以上、Ariga_bw以下のケースに絞る
  filter(vm1 <= Ariga_bw & vm1 >= -1 * Ariga_bw)

Ariga_df2

## # A tibble: 647 x 2
##    F_ldpv_smd    vm1
##         <dbl>  <dbl>
##  1       36.8 -2.45 
##  2       39.6  1.09 
##  3       35.3  2.52 
##  4       44.5 -5.13 
##  5       30.8 -0.407
##  6       38.8  5.87 
##  7       45.6 -1.25 
##  8       48.4 -0.590
##  9       36.9  2.32 
## 10       39.5  4.96 
## # … with 637 more rows

データの大きさは647行2列です。この647ですが、RDestimate()から得られたLATE推定値の観察数（Observations）と一致することが分かります。それでは続きまして、重み付け変数を作成します。三角形関数による重み付けは比較的簡単です。

\[
\frac{1 - |強制変数の値 / 最適バンド幅|}{\sum (1 - |強制変数の値 / 最適バンド幅|)}
\]

Ariga_df2 <- Ariga_df2 %>%
  mutate(W = 1 - abs(vm1 / Ariga_bw),
         W = W / sum(W))

Ariga_df2

## # A tibble: 647 x 3
##    F_ldpv_smd    vm1        W
##         <dbl>  <dbl>    <dbl>
##  1       36.8 -2.45  0.00200 
##  2       39.6  1.09  0.00255 
##  3       35.3  2.52  0.00197 
##  4       44.5 -5.13  0.000921
##  5       30.8 -0.407 0.00282 
##  6       38.8  5.87  0.000625
##  7       45.6 -1.25  0.00248 
##  8       48.4 -0.590 0.00275 
##  9       36.9  2.32  0.00205 
## 10       39.5  4.96  0.000991
## # … with 637 more rows
…
